FID,Zone,Redline,TotalEncounters,TotalArrests,Consensual,Consensual_Arrest,Other,Other_Arrest,ProbableCause,ProbableCause_Arrest,ProbationParole,ProbationParole_Arrest,ReasonableSuspicion,ReasonableSuspicion_Arrest,TrafficViolation,TrafficViolation_Arrest,Nonwhite,Nonwhite_Arrest,White,White_Arrest,Male,Male_Arrest,NotMale,NotMale_Arrest
1,A10,0,33,5,15,2,0,0,6,1,4,2,1,0,20,2,29,5,4,0,24,5,9,0
2,A11,0,0,0,0,0,0,0,0,0,0,0,0,0,0,0,0,0,0,0,0,0,0,0
3,A4,0,622,36,419,10,0,0,66,15,4,2,13,3,518,13,448,34,174,2,417,31,205,5
4,A5,0,15,0,8,0,0,0,1,0,0,0,2,0,12,0,6,0,9,0,9,0,6,0
5,A6,0,308,25,170,3,0,0,44,18,0,0,19,1,233,5,225,24,83,1,224,22,84,3
6,A7,0,2,2,0,0,0,0,1,1,1,1,0,0,0,0,2,2,0,0,1,1,1,1
7,A8,0,3,1,2,0,0,0,1,1,0,0,0,0,2,0,2,1,1,0,3,1,0,0
8,A9,0,14,1,6,0,0,0,1,1,0,0,1,0,11,0,7,1,7,0,4,0,10,1
9,B10,0,129,1,71,0,0,0,6,0,0,0,4,1,118,0,72,1,57,0,76,1,53,0
10,B11,0,152,13,97,5,0,0,24,6,2,0,6,0,116,7,123,12,29,1,109,9,43,4
11,B12,0,115,7,69,4,0,0,16,2,6,1,8,0,81,4,93,7,22,0,84,7,31,0
12,B13,0,31,2,17,0,0,0,5,0,0,0,3,2,23,0,15,1,16,1,20,2,11,0
13,B14,0,0,0,0,0,0,0,0,0,0,0,0,0,0,0,0,0,0,0,0,0,0,0
14,B15,0,0,0,0,0,0,0,0,0,0,0,0,0,0,0,0,0,0,0,0,0,0,0
15,B16,0,13,0,5,0,0,0,1,0,0,0,0,0,9,0,6,0,7,0,10,0,3,0
16,B17,0,46,3,19,1,0,0,6,0,0,0,5,2,33,1,34,3,12,0,33,2,13,1
17,B18,0,94,9,44,1,0,0,19,7,3,0,6,0,60,1,73,7,21,2,70,7,24,2
18,B19,0,112,3,67,0,0,0,7,1,0,0,5,1,96,0,79,2,33,1,69,3,43,0
19,B20,0,73,2,44,1,0,0,5,1,0,0,1,0,66,1,53,2,20,0,49,2,24,0
20,B21,0,35,8,21,2,0,0,5,4,1,0,3,1,25,2,17,3,18,5,22,6,13,2
21,B22,0,13,1,4,0,0,0,4,1,0,0,0,0,5,0,9,1,4,0,10,1,3,0
22,B23,0,469,27,313,9,0,0,49,13,4,1,22,1,378,12,353,23,116,4,344,25,125,2
23,B24,0,7,0,5,0,0,0,0,0,0,0,2,0,5,0,4,0,3,0,5,0,2,0
24,B25,0,172,21,89,2,0,0,42,14,5,2,14,2,106,3,157,19,15,2,123,17,49,4
25,B26,0,22,5,11,1,0,0,7,3,1,1,1,0,13,1,21,5,1,0,14,5,8,0
26,B27,0,45,6,22,2,0,0,6,3,0,0,3,0,35,3,39,6,6,0,31,2,14,4
27,B28,0,61,10,32,1,0,0,11,9,1,0,0,0,43,1,53,9,8,1,42,10,19,0
28,B29,0,7,3,1,0,0,0,4,2,0,0,2,1,1,0,6,3,1,0,5,2,2,1
29,B30,0,4,0,1,0,0,0,0,0,0,0,1,0,2,0,4,0,0,0,2,0,2,0
30,B31,0,469,54,294,9,0,0,44,24,19,10,23,6,367,14,447,53,22,1,340,47,129,7
31,B32,0,195,18,117,6,0,0,23,6,5,1,11,1,153,10,187,18,8,0,142,13,53,5
32,B33,0,10,0,2,0,0,0,3,0,1,0,0,0,6,0,10,0,0,0,8,0,2,0
33,B34,0,454,73,262,12,0,0,68,43,17,3,20,5,330,19,444,72,10,1,350,59,104,14
34,B35,0,86,19,34,1,0,0,15,8,4,2,13,5,46,3,84,18,2,1,69,15,17,4
35,B36,0,646,74,354,13,0,0,105,44,17,4,38,7,473,18,626,72,20,2,496,63,150,11
36,B37,0,21,1,6,0,0,0,2,1,0,0,2,0,17,0,20,1,1,0,16,1,5,0
37,B38,0,50,14,17,5,0,0,10,5,1,0,7,4,28,4,41,13,9,1,37,13,13,1
38,B39,0,11,0,6,0,0,0,0,0,0,0,4,0,6,0,11,0,0,0,7,0,4,0
39,B42,0,1,0,0,0,0,0,0,0,0,0,1,0,0,0,1,0,0,0,1,0,0,0
40,B7,0,7,0,5,0,0,0,2,0,0,0,0,0,5,0,6,0,1,0,3,0,4,0
41,B9,0,41,0,23,0,0,0,4,0,0,0,1,0,35,0,19,0,22,0,26,0,15,0
42,C10,1,464,16,253,8,0,0,32,2,0,0,21,4,396,7,250,13,214,3,301,14,163,2
43,C11,1,618,51,260,4,0,0,99,30,12,7,26,5,451,8,448,51,170,0,421,40,197,11
44,C12,1,306,44,133,8,0,0,63,28,1,1,23,3,211,9,229,40,77,4,213,36,93,8
45,C13,1,363,14,183,2,0,0,45,6,5,3,29,2,269,3,201,8,162,6,237,12,126,2
46,C14,1,96,7,52,1,0,0,12,4,2,0,5,0,71,1,75,6,21,1,69,5,27,2
47,C15,1,415,44,147,5,0,0,101,22,6,4,29,5,259,8,337,39,78,5,299,36,116,8
48,C16,1,9,0,1,0,0,0,6,0,0,0,1,0,2,0,5,0,4,0,9,0,0,0
49,C17,1,234,16,116,1,0,0,32,10,1,1,9,3,174,2,193,13,41,3,176,15,58,1
50,C18,1,532,64,244,9,0,0,79,39,12,3,31,7,381,9,505,59,27,5,393,47,139,17
51,C19,1,1297,197,670,51,0,0,232,97,40,10,113,27,850,51,1227,192,70,5,990,156,307,41
52,C20,1,615,124,317,17,0,0,138,86,9,4,43,8,407,23,579,121,36,3,485,69,130,55
53,C21,1,133,12,62,3,0,0,19,5,0,0,18,3,90,4,106,11,27,1,92,12,41,0
54,C22,1,716,88,402,15,0,0,89,43,25,7,69,11,513,24,658,78,58,10,528,71,188,17
55,C23,1,1033,134,580,23,0,0,154,74,28,12,71,14,742,30,942,123,91,11,772,102,261,32
56,C24,1,383,57,198,10,0,0,74,25,13,2,34,12,257,17,349,49,34,8,277,47,106,10
57,C25,1,146,22,59,2,0,0,37,14,9,3,18,0,65,2,101,14,45,8,100,14,46,8
58,C26,1,1166,175,639,38,0,0,172,82,29,6,71,18,846,62,1132,168,34,7,904,144,262,31
59,C27,1,83,18,32,0,0,0,16,10,7,3,12,1,42,4,75,18,8,0,65,15,18,3
60,C28,1,1774,293,844,68,0,0,392,166,64,12,160,27,1059,72,1742,291,32,2,1374,243,400,50
61,C29,1,1450,211,761,55,0,0,215,94,39,9,109,23,1027,80,1397,207,53,4,1156,174,294,37
62,C30,1,1845,242,972,63,0,0,274,107,71,19,118,23,1305,86,1788,235,57,7,1478,211,367,31
63,C32,1,20,1,10,0,0,0,5,1,2,0,0,0,10,0,13,1,7,0,13,1,7,0
64,C8,1,1,0,0,0,0,0,0,0,0,0,0,0,1,0,1,0,0,0,1,0,0,0
65,C9,1,248,21,132,4,0,0,30,7,5,3,14,4,189,6,169,18,79,3,163,18,85,3
66,D10,1,1857,302,842,40,0,0,371,174,55,14,150,35,1230,68,1745,283,112,19,1409,186,448,116
67,D11,1,971,96,483,17,0,0,136,61,4,2,42,5,746,25,806,87,165,9,726,53,245,43
68,D12,1,7,2,1,0,0,0,5,2,0,0,0,0,2,0,6,1,1,1,7,2,0,0
69,D13,1,43,2,36,0,0,0,2,1,0,0,0,0,40,1,38,0,5,2,30,2,13,0
70,D14,1,196,33,95,3,0,0,32,19,4,0,23,8,133,6,186,31,10,2,161,24,35,9
71,D15,1,994,115,539,23,0,0,168,70,14,2,53,12,700,24,865,99,129,16,816,89,178,26
72,D16,1,89,14,52,3,0,0,13,7,2,0,6,2,66,5,74,12,15,2,60,12,29,2
73,D17,1,3,2,1,0,0,0,0,0,0,0,0,0,3,2,3,2,0,0,1,1,2,1
74,D18,1,6572,1104,3067,239,0,0,1278,554,189,49,640,153,4183,303,6369,1063,203,41,5348,935,1224,169
75,D4,1,19,4,8,0,0,0,0,0,3,2,4,2,8,0,19,4,0,0,18,4,1,0
76,D5,1,122,7,48,1,0,0,12,5,0,0,3,1,105,1,63,2,59,5,70,6,52,1
77,D7,1,1753,191,854,32,0,0,258,102,39,13,126,24,1285,46,1531,184,222,7,1311,156,442,35
78,D8,1,4329,625,1935,113,0,0,782,342,102,29,362,78,2873,140,3784,574,545,51,3250,441,1079,184
79,D9,1,2029,198,1042,44,0,0,275,107,24,4,117,20,1573,58,1761,181,268,17,1498,157,531,41
80,NoZone,0,29983,3050,14620,498,1,0,4632,1755,328,106,1751,380,22553,696,25401,2784,4582,266,21995,2214,7988,836